<?xml version="1.0" encoding="utf-8"?>
<COLLADA xmlns="http://www.collada.org/2005/11/COLLADASchema" version="1.4.1" xmlns:xsi="http://www.w3.org/2001/XMLSchema-instance">
  <asset>
    <contributor>
      <author>Blender User</author>
      <authoring_tool>Blender 2.83.0 commit date:2020-06-03, commit time:14:38, hash:211b6c29f771</authoring_tool>
    </contributor>
    <created>2020-07-09T14:44:46</created>
    <modified>2020-07-09T14:44:46</modified>
    <unit name="meter" meter="1"/>
    <up_axis>Z_UP</up_axis>
  </asset>
  <library_cameras>
    <camera id="Camera_001-camera" name="Camera.001">
      <optics>
        <technique_common>
          <perspective>
            <xfov sid="xfov">39.59775</xfov>
            <aspect_ratio>1.777778</aspect_ratio>
            <znear sid="znear">0.1</znear>
            <zfar sid="zfar">100</zfar>
          </perspective>
        </technique_common>
      </optics>
      <extra>
        <technique profile="blender">
          <shiftx sid="shiftx" type="float">0</shiftx>
          <shifty sid="shifty" type="float">0</shifty>
          <dof_distance sid="dof_distance" type="float">10</dof_distance>
        </technique>
      </extra>
    </camera>
    <camera id="Camera-camera" name="Camera">
      <optics>
        <technique_common>
          <perspective>
            <xfov sid="xfov">39.59775</xfov>
            <aspect_ratio>1.777778</aspect_ratio>
            <znear sid="znear">0.1</znear>
            <zfar sid="zfar">100</zfar>
          </perspective>
        </technique_common>
      </optics>
      <extra>
        <technique profile="blender">
          <shiftx sid="shiftx" type="float">0</shiftx>
          <shifty sid="shifty" type="float">0</shifty>
          <dof_distance sid="dof_distance" type="float">10</dof_distance>
        </technique>
      </extra>
    </camera>
  </library_cameras>
  <library_lights>
    <light id="Light_001-light" name="Light.001">
      <technique_common>
        <point>
          <color sid="color">1000 1000 1000</color>
          <constant_attenuation>1</constant_attenuation>
          <linear_attenuation>0</linear_attenuation>
          <quadratic_attenuation>0.00111109</quadratic_attenuation>
        </point>
      </technique_common>
      <extra>
        <technique profile="blender">
          <type sid="type" type="int">0</type>
          <flag sid="flag" type="int">0</flag>
          <mode sid="mode" type="int">1</mode>
          <gamma sid="blender_gamma" type="float">1</gamma>
          <red sid="red" type="float">1</red>
          <green sid="green" type="float">1</green>
          <blue sid="blue" type="float">1</blue>
          <shadow_r sid="blender_shadow_r" type="float">0</shadow_r>
          <shadow_g sid="blender_shadow_g" type="float">0</shadow_g>
          <shadow_b sid="blender_shadow_b" type="float">0</shadow_b>
          <energy sid="blender_energy" type="float">1000</energy>
          <dist sid="blender_dist" type="float">29.99998</dist>
          <spotsize sid="spotsize" type="float">75</spotsize>
          <spotblend sid="spotblend" type="float">0.15</spotblend>
          <att1 sid="att1" type="float">0</att1>
          <att2 sid="att2" type="float">1</att2>
          <falloff_type sid="falloff_type" type="int">2</falloff_type>
          <clipsta sid="clipsta" type="float">0.04999995</clipsta>
          <clipend sid="clipend" type="float">30.002</clipend>
          <bias sid="bias" type="float">1</bias>
          <soft sid="soft" type="float">3</soft>
          <bufsize sid="bufsize" type="int">2880</bufsize>
          <samp sid="samp" type="int">3</samp>
          <buffers sid="buffers" type="int">1</buffers>
          <area_shape sid="area_shape" type="int">1</area_shape>
          <area_size sid="area_size" type="float">0.1</area_size>
          <area_sizey sid="area_sizey" type="float">0.1</area_sizey>
          <area_sizez sid="area_sizez" type="float">1</area_sizez>
        </technique>
      </extra>
    </light>
    <light id="Light-light" name="Light">
      <technique_common>
        <point>
          <color sid="color">1000 1000 1000</color>
          <constant_attenuation>1</constant_attenuation>
          <linear_attenuation>0</linear_attenuation>
          <quadratic_attenuation>0.00111109</quadratic_attenuation>
        </point>
      </technique_common>
      <extra>
        <technique profile="blender">
          <type sid="type" type="int">0</type>
          <flag sid="flag" type="int">0</flag>
          <mode sid="mode" type="int">1</mode>
          <gamma sid="blender_gamma" type="float">1</gamma>
          <red sid="red" type="float">1</red>
          <green sid="green" type="float">1</green>
          <blue sid="blue" type="float">1</blue>
          <shadow_r sid="blender_shadow_r" type="float">0</shadow_r>
          <shadow_g sid="blender_shadow_g" type="float">0</shadow_g>
          <shadow_b sid="blender_shadow_b" type="float">0</shadow_b>
          <energy sid="blender_energy" type="float">1000</energy>
          <dist sid="blender_dist" type="float">29.99998</dist>
          <spotsize sid="spotsize" type="float">75</spotsize>
          <spotblend sid="spotblend" type="float">0.15</spotblend>
          <att1 sid="att1" type="float">0</att1>
          <att2 sid="att2" type="float">1</att2>
          <falloff_type sid="falloff_type" type="int">2</falloff_type>
          <clipsta sid="clipsta" type="float">0.04999995</clipsta>
          <clipend sid="clipend" type="float">30.002</clipend>
          <bias sid="bias" type="float">1</bias>
          <soft sid="soft" type="float">3</soft>
          <bufsize sid="bufsize" type="int">2880</bufsize>
          <samp sid="samp" type="int">3</samp>
          <buffers sid="buffers" type="int">1</buffers>
          <area_shape sid="area_shape" type="int">1</area_shape>
          <area_size sid="area_size" type="float">0.1</area_size>
          <area_sizey sid="area_sizey" type="float">0.1</area_sizey>
          <area_sizez sid="area_sizez" type="float">1</area_sizez>
        </technique>
      </extra>
    </light>
  </library_lights>
  <library_effects>
    <effect id="BOX_STUFF19_015-effect">
      <profile_COMMON>
        <newparam sid="BOX_STUFF19_jpg-surface">
          <surface type="2D">
            <init_from>BOX_STUFF19_jpg</init_from>
          </surface>
        </newparam>
        <newparam sid="BOX_STUFF19_jpg-sampler">
          <sampler2D>
            <source>BOX_STUFF19_jpg-surface</source>
          </sampler2D>
        </newparam>
        <technique sid="common">
          <lambert>
            <emission>
              <color sid="emission">0 0 0 1</color>
            </emission>
            <diffuse>
              <texture texture="BOX_STUFF19_jpg-sampler" texcoord="ID226_015-mesh-map-0"/>
            </diffuse>
            <index_of_refraction>
              <float sid="ior">1.45</float>
            </index_of_refraction>
          </lambert>
        </technique>
      </profile_COMMON>
    </effect>
  </library_effects>
  <library_images>
    <image id="BOX_STUFF19_jpg" name="BOX_STUFF19_jpg">
      <init_from>BOX_STUFF19.jpg</init_from>
    </image>
  </library_images>
  <library_materials>
    <material id="BOX_STUFF19_015-material" name="BOX_STUFF19.015">
      <instance_effect url="#BOX_STUFF19_015-effect"/>
    </material>
  </library_materials>
  <library_geometries>
    <geometry id="ID226_015-mesh" name="ID226.015">
      <mesh>
        <source id="ID226_015-mesh-positions">
          <float_array id="ID226_015-mesh-positions-array" count="480">-98.57516 -87.56172 -76.0371 -100.9839 -85.15296 -76.0371 -99.17282 -85.75062 -76.6891 -99.17282 85.75067 -76.6891 -100.9839 -85.15296 -76.0371 -100.9839 85.15297 -76.0371 -99.17282 -85.75062 -76.6891 99.17257 -85.75062 -76.6891 -98.57516 -87.56172 -76.0371 -99.17282 -85.75062 -76.6891 98.57498 -87.56172 -76.0371 -98.57516 -87.56172 84.55041 -100.9839 -85.15296 -76.0371 -98.57516 -87.56172 -76.0371 -100.9839 -85.15296 84.55041 99.17257 85.75067 -76.6891 -99.17282 -85.75062 -76.6891 -99.17282 85.75067 -76.6891 99.17257 -85.75062 -76.6891 -100.9839 -85.15296 84.55041 -100.9839 85.15297 -76.0371 -100.9839 -85.15296 -76.0371 -100.9839 85.15297 84.55041 -98.57516 87.56177 -76.0371 -99.17282 85.75067 -76.6891 -100.9839 85.15297 -76.0371 98.57498 -87.56172 84.55041 -98.57516 -87.56172 -76.0371 98.57498 -87.56172 -76.0371 -98.57516 -87.56172 84.55041 100.9837 -85.15296 -76.0371 98.57498 -87.56172 -76.0371 99.17257 -85.75062 -76.6891 -98.57516 -87.56172 84.55041 -99.17282 -85.75062 85.2024 -100.9839 -85.15296 84.55041 -98.57516 87.56177 -76.0371 99.17257 85.75067 -76.6891 -99.17282 85.75067 -76.6891 98.57498 87.56177 -76.0371 100.9837 85.15297 -76.0371 99.17257 -85.75062 -76.6891 99.17257 85.75067 -76.6891 100.9837 -85.15296 -76.0371 -99.17282 -85.75062 85.2024 -100.9839 85.15297 84.55041 -100.9839 -85.15296 84.55041 -99.17282 85.75067 85.2024 -100.9839 85.15297 84.55041 -98.57516 87.56177 -76.0371 -100.9839 85.15297 -76.0371 -98.57516 87.56177 84.55041 -98.57516 -87.56172 84.55041 99.17257 -85.75062 85.2024 -99.17282 -85.75062 85.2024 98.57498 -87.56172 84.55041 100.9837 -85.15296 84.55041 98.57498 -87.56172 -76.0371 100.9837 -85.15296 -76.0371 98.57498 -87.56172 84.55041 -98.57516 87.56177 84.55041 98.57498 87.56177 -76.0371 -98.57516 87.56177 -76.0371 98.57498 87.56177 84.55041 100.9837 85.15297 -76.0371 99.17257 85.75067 -76.6891 98.57498 87.56177 -76.0371 100.9837 85.15297 -76.0371 100.9837 -85.15296 84.55041 100.9837 -85.15296 -76.0371 100.9837 85.15297 84.55041 -99.17282 85.75067 -74.87799 -99.17282 -85.75062 85.2024 -99.17282 -85.75062 -74.87799 -99.17282 85.75067 85.2024 -98.57516 87.56177 84.55041 -100.9839 85.15297 84.55041 -99.17282 85.75067 85.2024 -99.17282 -85.75062 85.2024 99.17257 -85.75062 -74.87799 -99.17282 -85.75062 -74.87799 99.17257 -85.75062 85.2024 100.9837 -85.15296 84.55041 99.17257 -85.75062 85.2024 98.57498 -87.56172 84.55041 99.17257 85.75067 85.2024 -98.57516 87.56177 84.55041 -99.17282 85.75067 85.2024 98.57498 87.56177 84.55041 98.57498 87.56177 84.55041 100.9837 85.15297 -76.0371 98.57498 87.56177 -76.0371 100.9837 85.15297 84.55041 100.9837 -85.15296 84.55041 99.17257 85.75067 85.2024 99.17257 -85.75062 85.2024 100.9837 85.15297 84.55041 99.17257 -85.75062 -74.87799 -99.17282 85.75067 -74.87799 -99.17282 -85.75062 -74.87799 99.17257 85.75067 -74.87799 99.17257 85.75067 85.2024 -99.17282 85.75067 -74.87799 99.17257 85.75067 -74.87799 -99.17282 85.75067 85.2024 99.17257 -85.75062 85.2024 99.17257 85.75067 -74.87799 99.17257 -85.75062 -74.87799 99.17257 85.75067 85.2024 100.9837 85.15297 84.55041 98.57498 87.56177 84.55041 99.17257 85.75067 85.2024 -99.17282 -85.75067 84.02133 99.17263 -7.62939e-6 83.35272 -99.17282 -2.28882e-5 83.35272 99.17263 -85.75065 84.02133 -99.17282 -85.75067 84.02133 -99.17282 -2.28882e-5 82.6941 -99.17282 -85.75067 82.02549 -99.17282 -2.28882e-5 83.35272 99.17263 -85.75065 82.02549 -99.17282 -85.75067 84.02133 -99.17282 -85.75067 82.02549 99.17263 -85.75065 84.02133 99.17263 -7.62939e-6 82.69409 99.17263 -85.75065 84.02133 99.17263 -85.75065 82.02549 99.17263 -7.62939e-6 83.35272 99.17263 -7.62939e-6 83.35272 -99.17282 -2.28882e-5 82.6941 -99.17282 -2.28882e-5 83.35272 99.17263 -7.62939e-6 82.69409 99.17263 -85.75065 82.02549 -99.17282 -2.28882e-5 82.6941 99.17263 -7.62939e-6 82.69409 -99.17282 -85.75067 82.02549 99.17263 85.75063 84.02133 -99.17283 85.75063 84.02133 99.17263 -7.62939e-6 83.35273 -99.17282 -2.28882e-5 83.35272 -99.17282 -2.28882e-5 83.35272 -99.17283 85.75063 84.02133 -99.17282 -2.28882e-5 82.6941 -99.17283 85.75063 82.02549 99.17263 85.75063 84.02133 99.17263 85.75063 82.02549 -99.17283 85.75063 84.02133 -99.17283 85.75063 82.02549 99.17263 -7.62939e-6 83.35273 99.17263 -7.62939e-6 82.6941 99.17263 85.75063 84.02133 99.17263 85.75063 82.02549 99.17263 -7.62939e-6 82.6941 99.17263 -7.62939e-6 83.35273 -99.17282 -2.28882e-5 82.6941 -99.17282 -2.28882e-5 83.35272 -99.17283 85.75063 82.02549 99.17263 85.75063 82.02549 -99.17282 -2.28882e-5 82.6941 99.17263 -7.62939e-6 82.6941</float_array>
          <technique_common>
            <accessor source="#ID226_015-mesh-positions-array" count="160" stride="3">
              <param name="X" type="float"/>
              <param name="Y" type="float"/>
              <param name="Z" type="float"/>
            </accessor>
          </technique_common>
        </source>
        <source id="ID226_015-mesh-normals">
          <float_array id="ID226_015-mesh-normals-array" count="159">-0.42782 -0.4278117 -0.7962082 -0.3387247 0 -0.9408856 -0.3387192 0 -0.9408876 0 -0.3387182 -0.9408879 0 -0.338721 -0.9408869 -0.7071089 -0.7071047 0 -0.7071108 -0.7071029 0 0 0 -1 -1 0 0 -0.4278268 0.4278102 -0.7962053 0 -1 0 0.4278087 -0.4278003 -0.7962203 -0.4278166 -0.4278124 0.7962095 0 0.3387218 -0.9408866 0 0.338718 -0.940888 0.3387104 0 -0.9408908 0.3387159 0 -0.9408888 -0.3387247 0 0.9408856 -0.3387192 0 0.9408876 -0.7071163 0.7070973 0 -0.7071146 0.7070991 0 0 -0.3387186 0.9408878 0 -0.3387213 0.9408869 0.7071125 -0.7071011 0 0.7071126 -0.7071011 0 0 1 0 0.4278162 0.4277995 -0.7962167 1 0 0 -0.4278234 0.4278109 0.7962067 0.4278087 -0.4278003 0.7962203 0 0.3387214 0.9408868 0 0.3387177 0.9408881 0.7071181 0.7070955 0 0.3387104 0 0.9408908 0.3387159 0 0.9408888 0 0 1 0.4278094 0.427801 0.7962195 0 0.007796883 0.9999696 0 0.007796883 0.9999696 -1 0 0 0 -1 0 0 -1 0 0 1 0 0 0.007796704 -0.9999696 0 0.007796883 -0.9999696 0 -0.007796704 0.9999696 0 -0.007796883 0.9999696 -1 -1.78315e-7 0 1 -5.40349e-7 0 1 1.78316e-7 0 0 -1 0 0 -0.007796883 -0.9999697 0 -0.007796883 -0.9999696</float_array>
          <technique_common>
            <accessor source="#ID226_015-mesh-normals-array" count="53" stride="3">
              <param name="X" type="float"/>
              <param name="Y" type="float"/>
              <param name="Z" type="float"/>
            </accessor>
          </technique_common>
        </source>
        <source id="ID226_015-mesh-map-0">
          <float_array id="ID226_015-mesh-map-0-array" count="456">0.3603121 0.4738867 0.3560408 0.4810604 0.3592523 0.4792804 0.3592523 0.9900386 0.3560408 0.4810604 0.3560408 0.9882587 0.3560408 0.4810604 0.3592523 0.9900386 0.3592523 0.4792804 0.710963 0.4792804 0.3603121 0.4738867 0.3592523 0.4792804 0.3603121 0.4738867 0.710963 0.4792804 0.7099032 0.4738867 0.3583833 0.4807888 0.354112 0.002533495 0.3583833 0.002533495 0.354112 0.002533495 0.3583833 0.4807888 0.354112 0.4807888 0.710963 0.4792804 0.3592523 0.9900386 0.3592523 0.4792804 0.3592523 0.9900386 0.710963 0.4792804 0.710963 0.9900386 0.3532318 0.4729516 0.006549537 0.001912415 0.3532318 0.001912415 0.006549537 0.001912415 0.3532318 0.4729516 0.006549537 0.4729516 0.3603121 0.9954324 0.3592523 0.9900386 0.3560408 0.9882587 0.7079744 0.4807888 0.3583833 0.002533495 0.7079744 0.002533495 0.3583833 0.002533495 0.7079744 0.4807888 0.3583833 0.4807888 0.7141745 0.4810604 0.7099032 0.4738867 0.710963 0.4792804 0.3583833 0.4807888 0.3573235 0.4827305 0.354112 0.4807888 0.3603121 0.9954324 0.710963 0.9900386 0.3592523 0.9900386 0.710963 0.9900386 0.3603121 0.9954324 0.7099032 0.9954324 0.7141745 0.9882587 0.710963 0.4792804 0.710963 0.9900386 0.710963 0.4792804 0.7141745 0.9882587 0.7141745 0.4810604 0.3544484 0.4748641 0.006549537 0.4729516 0.3532318 0.4729516 0.006549537 0.4729516 0.3544484 0.4748641 0.005332887 0.4748641 0.00354588 0.4729516 0.007813155 0.001912415 0.00354588 0.001912415 0.007813155 0.001912415 0.00354588 0.4729516 0.007813155 0.4729516 0.3583833 0.4807888 0.7090342 0.4827305 0.3573235 0.4827305 0.7090342 0.4827305 0.3583833 0.4807888 0.7079744 0.4807888 0.7122457 0.4807888 0.7079744 0.002533495 0.7122457 0.002533495 0.7079744 0.002533495 0.7122457 0.4807888 0.7079744 0.4807888 0.007813155 0.4729516 0.3570764 0.001912415 0.007813155 0.001912415 0.3570764 0.001912415 0.007813155 0.4729516 0.3570764 0.4729516 0.7141745 0.9882587 0.710963 0.9900386 0.7099032 0.9954324 0.9986668 0.9882587 0.7139094 0.4810604 0.9986668 0.4810604 0.7139094 0.4810604 0.9986668 0.9882587 0.7139094 0.9882587 0.005332887 0.005312204 0.3544484 0.4748641 0.3544484 0.005312204 0.3544484 0.4748641 0.005332887 0.005312204 0.005332887 0.4748641 0.007813155 0.4729516 0.00354588 0.4729516 0.006754279 0.4748641 0.006754279 0.4748641 0.3581352 0.005312204 0.006754279 0.005312204 0.3581352 0.005312204 0.006754279 0.4748641 0.3581352 0.4748641 0.7122457 0.4807888 0.7090342 0.4827305 0.7079744 0.4807888 0.3581352 0.4748641 0.007813155 0.4729516 0.006754279 0.4748641 0.007813155 0.4729516 0.3581352 0.4748641 0.3570764 0.4729516 0.7139094 0.9954324 0.9986668 0.9882587 0.9986668 0.9954324 0.9986668 0.9882587 0.7139094 0.9954324 0.7139094 0.9882587 0.7139094 0.4810604 0.7127532 0.9900386 0.7127532 0.4792804 0.7127532 0.9900386 0.7139094 0.4810604 0.7139094 0.9882587 0.3539012 0.4706058 0.004785776 0.004258215 0.3539012 0.004258215 0.004785776 0.004258215 0.3539012 0.4706058 0.004785776 0.4706058 0.3581352 0.4748641 0.006754279 0.005312204 0.3581352 0.005312204 0.006754279 0.005312204 0.3581352 0.4748641 0.006754279 0.4748641 0.3544484 0.4748641 0.005332887 0.005312204 0.3544484 0.005312204 0.005332887 0.005312204 0.3544484 0.4748641 0.005332887 0.4748641 0.7139094 0.9882587 0.7139094 0.9954324 0.7127532 0.9900386 0 0 0 0 0 0 0 0 0 0 0 0 0 0 0 0 0 0 0 0 0 0 0 0 0 0 0 0 0 0 0 0 0 0 0 0 0 0 0 0 0 0 0 0 0 0 0 0 0 0 0 0 0 0 0 0 0 0 0 0 0 0 0 0 0 0 0 0 0 0 0 0 0 0 0 0 0 0 0 0 0 0 0 0 0 0 0 0 0 0 0 0 0 0 0 0 0 0 0 0 0 0 0 0 0 0 0 0 0 0 0 0 0 0 0 0 0 0 0 0 0 0 0 0 0 0 0 0 0 0 0 0 0 0 0 0 0 0 0 0 0 0 0 0</float_array>
          <technique_common>
            <accessor source="#ID226_015-mesh-map-0-array" count="228" stride="2">
              <param name="S" type="float"/>
              <param name="T" type="float"/>
            </accessor>
          </technique_common>
        </source>
        <source id="ID226_015-mesh-map-1">
          <float_array id="ID226_015-mesh-map-1-array" count="456">0 0 0 0 0 0 0 0 0 0 0 0 0 0 0 0 0 0 0 0 0 0 0 0 0 0 0 0 0 0 0 0 0 0 0 0 0 0 0 0 0 0 0 0 0 0 0 0 0 0 0 0 0 0 0 0 0 0 0 0 0 0 0 0 0 0 0 0 0 0 0 0 0 0 0 0 0 0 0 0 0 0 0 0 0 0 0 0 0 0 0 0 0 0 0 0 0 0 0 0 0 0 0 0 0 0 0 0 0 0 0 0 0 0 0 0 0 0 0 0 0 0 0 0 0 0 0 0 0 0 0 0 0 0 0 0 0 0 0 0 0 0 0 0 0 0 0 0 0 0 0 0 0 0 0 0 0 0 0 0 0 0 0 0 0 0 0 0 0 0 0 0 0 0 0 0 0 0 0 0 0 0 0 0 0 0 0 0 0 0 0 0 0 0 0 0 0 0 0 0 0 0 0 0 0 0 0 0 0 0 0 0 0 0 0 0 0 0 0 0 0 0 0 0 0 0 0 0 0 0 0 0 0 0 0 0 0 0 0 0 0 0 0 0 0 0 0 0 0 0 0 0 0 0 0 0 0 0 0 0 0 0 0 0 0 0 0 0 0 0 0 0 0 0 0 0 0 0 0 0 0 0 0 0 0 0 0 0 0 0 0 0 0 0 0 0 0 0 0 0 0 0 0 0 0 0 0 0 0 0 0 0 0.003211379 0.4792804 0.3549222 0.7346595 0.003211379 0.7346595 0.3549222 0.7346595 0.003211379 0.4792804 0.3549222 0.4792804 0.003211379 0.4792804 0.003211379 0.7346595 0.003211379 0.4792804 0.003211379 0.7346595 0.003211379 0.4792804 0.003211379 0.7346595 0.3549222 0.4792804 0.003211379 0.4792804 0.003211379 0.4792804 0.003211379 0.4792804 0.3549222 0.4792804 0.3549222 0.4792804 0.3549222 0.7346595 0.3549222 0.4792804 0.3549222 0.4792804 0.3549222 0.4792804 0.3549222 0.7346595 0.3549222 0.7346595 0.3549222 0.7346595 0.003211379 0.7346595 0.003211379 0.7346595 0.003211379 0.7346595 0.3549222 0.7346595 0.3549222 0.7346595 0.3549222 0.4792804 0.003211379 0.7346595 0.3549222 0.7346595 0.003211379 0.7346595 0.3549222 0.4792804 0.003211379 0.4792804 0 0 0 0 0 0 0 0 0 0 0 0 0 0 0 0 0 0 0 0 0 0 0 0 0 0 0 0 0 0 0 0 0 0 0 0 0 0 0 0 0 0 0 0 0 0 0 0 0 0 0 0 0 0 0 0 0 0 0 0 0 0 0 0 0 0 0 0 0 0 0 0</float_array>
          <technique_common>
            <accessor source="#ID226_015-mesh-map-1-array" count="228" stride="2">
              <param name="S" type="float"/>
              <param name="T" type="float"/>
            </accessor>
          </technique_common>
        </source>
        <source id="ID226_015-mesh-map-2">
          <float_array id="ID226_015-mesh-map-2-array" count="456">0 0 0 0 0 0 0 0 0 0 0 0 0 0 0 0 0 0 0 0 0 0 0 0 0 0 0 0 0 0 0 0 0 0 0 0 0 0 0 0 0 0 0 0 0 0 0 0 0 0 0 0 0 0 0 0 0 0 0 0 0 0 0 0 0 0 0 0 0 0 0 0 0 0 0 0 0 0 0 0 0 0 0 0 0 0 0 0 0 0 0 0 0 0 0 0 0 0 0 0 0 0 0 0 0 0 0 0 0 0 0 0 0 0 0 0 0 0 0 0 0 0 0 0 0 0 0 0 0 0 0 0 0 0 0 0 0 0 0 0 0 0 0 0 0 0 0 0 0 0 0 0 0 0 0 0 0 0 0 0 0 0 0 0 0 0 0 0 0 0 0 0 0 0 0 0 0 0 0 0 0 0 0 0 0 0 0 0 0 0 0 0 0 0 0 0 0 0 0 0 0 0 0 0 0 0 0 0 0 0 0 0 0 0 0 0 0 0 0 0 0 0 0 0 0 0 0 0 0 0 0 0 0 0 0 0 0 0 0 0 0 0 0 0 0 0 0 0 0 0 0 0 0 0 0 0 0 0 0 0 0 0 0 0 0 0 0 0 0 0 0 0 0 0 0 0 0 0 0 0 0 0 0 0 0 0 0 0 0 0 0 0 0 0 0 0 0 0 0 0 0 0 0 0 0 0 0 0 0 0 0 0 0 0 0 0 0 0 0 0 0 0 0 0 0 0 0 0 0 0 0 0 0 0 0 0 0 0 0 0 0 0 0 0 0 0 0 0 0 0 0 0 0 0 0 0 0 0 0 0 0 0 0 0 0 0 0 0 0 0 0 0 0 0 0 0 0 0 0 0 0 0 0 0 0.3549222 0.9900386 0.003211379 0.9900386 0.3549222 0.7346595 0.003211379 0.7346595 0.3549222 0.7346595 0.003211379 0.9900386 0.003211379 0.7346595 0.003211379 0.9900386 0.003211379 0.7346595 0.003211379 0.9900386 0.003211379 0.7346595 0.003211379 0.9900386 0.3549222 0.9900386 0.3549222 0.9900386 0.003211379 0.9900386 0.003211379 0.9900386 0.003211379 0.9900386 0.3549222 0.9900386 0.3549222 0.7346595 0.3549222 0.7346595 0.3549222 0.9900386 0.3549222 0.9900386 0.3549222 0.9900386 0.3549222 0.7346595 0.3549222 0.7346595 0.3549222 0.7346595 0.003211379 0.7346595 0.003211379 0.7346595 0.003211379 0.7346595 0.3549222 0.7346595 0.003211379 0.9900386 0.3549222 0.9900386 0.003211379 0.7346595 0.3549222 0.7346595 0.003211379 0.7346595 0.3549222 0.9900386</float_array>
          <technique_common>
            <accessor source="#ID226_015-mesh-map-2-array" count="228" stride="2">
              <param name="S" type="float"/>
              <param name="T" type="float"/>
            </accessor>
          </technique_common>
        </source>
        <vertices id="ID226_015-mesh-vertices">
          <input semantic="POSITION" source="#ID226_015-mesh-positions"/>
        </vertices>
        <triangles material="BOX_STUFF19_015-material" count="76">
          <input semantic="VERTEX" source="#ID226_015-mesh-vertices" offset="0"/>
          <input semantic="NORMAL" source="#ID226_015-mesh-normals" offset="1"/>
          <input semantic="TEXCOORD" source="#ID226_015-mesh-map-0" offset="2" set="0"/>
          <input semantic="TEXCOORD" source="#ID226_015-mesh-map-1" offset="2" set="1"/>
          <input semantic="TEXCOORD" source="#ID226_015-mesh-map-2" offset="2" set="2"/>
          <p>0 0 0 1 0 1 2 0 2 3 1 3 4 1 4 5 1 5 4 2 6 3 2 7 6 2 8 7 3 9 8 3 10 9 3 11 8 4 12 7 4 13 10 4 14 11 5 15 12 5 16 13 5 17 12 6 18 11 6 19 14 6 20 15 7 21 16 7 22 17 7 23 16 7 24 15 7 25 18 7 26 19 8 27 20 8 28 21 8 29 20 8 30 19 8 31 22 8 32 23 9 33 24 9 34 25 9 35 26 10 36 27 10 37 28 10 38 27 10 39 26 10 40 29 10 41 30 11 42 31 11 43 32 11 44 33 12 45 34 12 46 35 12 47 36 13 48 37 13 49 38 13 50 37 14 51 36 14 52 39 14 53 40 15 54 41 15 55 42 15 56 41 16 57 40 16 58 43 16 59 44 17 60 45 17 61 46 17 62 45 18 63 44 18 64 47 18 65 48 19 66 49 19 67 50 19 68 49 20 69 48 20 70 51 20 71 52 21 72 53 21 73 54 21 74 53 22 75 52 22 76 55 22 77 56 23 78 57 23 79 58 23 80 57 24 81 56 24 82 59 24 83 60 25 84 61 25 85 62 25 86 61 25 87 60 25 88 63 25 89 64 26 90 65 26 91 66 26 92 67 27 93 68 27 94 69 27 95 68 27 96 67 27 97 70 27 98 71 27 99 72 27 100 73 27 101 72 27 102 71 27 103 74 27 104 75 28 105 76 28 106 77 28 107 78 25 108 79 25 109 80 25 110 79 25 111 78 25 112 81 25 113 82 29 114 83 29 115 84 29 116 85 30 117 86 30 118 87 30 119 86 31 120 85 31 121 88 31 122 89 32 123 90 32 124 91 32 125 90 32 126 89 32 127 92 32 128 93 33 129 94 33 130 95 33 131 94 34 132 93 34 133 96 34 134 97 35 135 98 35 136 99 35 137 98 35 138 97 35 139 100 35 140 101 10 141 102 10 142 103 10 143 102 10 144 101 10 145 104 10 146 105 8 147 106 8 148 107 8 149 106 8 150 105 8 151 108 8 152 109 36 153 110 36 154 111 36 155 112 37 156 113 37 157 114 37 158 113 38 159 112 38 160 115 38 161 116 39 162 117 39 163 118 39 164 117 8 165 116 8 166 119 8 167 120 40 168 121 40 169 122 40 170 121 41 171 120 41 172 123 41 173 124 27 174 125 27 175 126 27 176 125 27 177 124 27 178 127 27 179 128 42 180 129 42 181 130 42 182 129 42 183 128 42 184 131 42 185 132 43 186 133 43 187 134 43 188 133 44 189 132 44 190 135 44 191 136 45 192 137 45 193 138 45 194 139 46 195 138 46 196 137 46 197 140 8 198 141 8 199 142 8 200 143 47 201 142 47 202 141 47 203 144 25 204 145 25 205 146 25 206 147 25 207 146 25 208 145 25 209 148 48 210 149 48 211 150 48 212 151 49 213 150 49 214 149 49 215 152 50 216 153 50 217 154 50 218 155 50 219 154 50 220 153 50 221 156 51 222 157 51 223 158 51 224 159 52 225 158 52 226 157 52 227</p>
        </triangles>
      </mesh>
    </geometry>
  </library_geometries>
  <library_visual_scenes>
    <visual_scene id="Scene" name="Scene">
      <node id="Light_001" name="Light.001" type="NODE">
        <matrix sid="transform">-0.2908648 -0.7711007 0.5663933 4.076245 0.9551711 -0.1998834 0.2183913 1.005454 -0.05518903 0.6045247 0.7946723 5.903862 0 0 0 1</matrix>
        <instance_light url="#Light_001-light"/>
      </node>
      <node id="Camera_001" name="Camera.001" type="NODE">
        <matrix sid="transform">0.6859207 -0.3240135 0.6515582 7.358891 0.7276763 0.3054209 -0.6141704 -6.925791 -4.01133e-9 0.8953956 0.4452714 4.958309 0 0 0 1</matrix>
        <instance_camera url="#Camera_001-camera"/>
      </node>
      <node id="BoxF" name="BoxF" type="NODE">
        <matrix sid="transform">0.0254 0 0 0 0 0.0254 0 0 0 0 0.0254 0 0 0 0 1</matrix>
        <node id="group_28" name="group_28" type="NODE">
          <matrix sid="transform">0.18183 0 0 0 0 0.18183 0 0 0 0 0.18183 0 0 0 0 1</matrix>
          <node id="group_32" name="group_32" type="NODE">
            <matrix sid="transform">0.6835565 0 0 100.9839 0 0.7434756 0 87.5617 0 0 0.9999999 76.68909 0 0 0 0.9999999</matrix>
            <instance_geometry url="#ID226_015-mesh" name="group_32">
              <bind_material>
                <technique_common>
                  <instance_material symbol="BOX_STUFF19_015-material" target="#BOX_STUFF19_015-material">
                    <bind_vertex_input semantic="ID226_015-mesh-map-0" input_semantic="TEXCOORD" input_set="0"/>
                    <bind_vertex_input semantic="ID226_015-mesh-map-1" input_semantic="TEXCOORD" input_set="1"/>
                    <bind_vertex_input semantic="ID226_015-mesh-map-2" input_semantic="TEXCOORD" input_set="2"/>
                  </instance_material>
                </technique_common>
              </bind_material>
            </instance_geometry>
          </node>
        </node>
      </node>
      <node id="Camera" name="Camera" type="NODE">
        <matrix sid="transform">0.6859207 -0.3240135 0.6515582 7.358891 0.7276763 0.3054208 -0.6141704 -6.925791 0 0.8953956 0.4452714 4.958309 0 0 0 1</matrix>
        <instance_camera url="#Camera-camera"/>
      </node>
      <node id="Light" name="Light" type="NODE">
        <matrix sid="transform">-0.2908646 -0.7711008 0.5663932 4.076245 0.9551712 -0.1998834 0.2183912 1.005454 -0.05518906 0.6045247 0.7946723 5.903862 0 0 0 1</matrix>
        <instance_light url="#Light-light"/>
      </node>
    </visual_scene>
  </library_visual_scenes>
  <scene>
    <instance_visual_scene url="#Scene"/>
  </scene>
</COLLADA>