<?xml version="1.0" encoding="utf-8"?>
<COLLADA xmlns="http://www.collada.org/2005/11/COLLADASchema" version="1.4.1" xmlns:xsi="http://www.w3.org/2001/XMLSchema-instance">
  <asset>
    <contributor>
      <author>Blender User</author>
      <authoring_tool>Blender 2.83.4 commit date:2020-08-05, commit time:06:00, hash:c113af82881a</authoring_tool>
    </contributor>
    <created>2020-09-13T10:03:18</created>
    <modified>2020-09-13T10:03:18</modified>
    <unit name="meter" meter="1"/>
    <up_axis>Z_UP</up_axis>
  </asset>
  <library_effects>
    <effect id="BOX_STUFF21_010-effect">
      <profile_COMMON>
        <newparam sid="BOX_STUFF21_jpg-surface">
          <surface type="2D">
            <init_from>BOX_STUFF21_jpg</init_from>
          </surface>
        </newparam>
        <newparam sid="BOX_STUFF21_jpg-sampler">
          <sampler2D>
            <source>BOX_STUFF21_jpg-surface</source>
          </sampler2D>
        </newparam>
        <technique sid="common">
          <lambert>
            <emission>
              <color sid="emission">0 0 0 1</color>
            </emission>
            <diffuse>
              <texture texture="BOX_STUFF21_jpg-sampler" texcoord="ID129_015-mesh-map-0"/>
            </diffuse>
            <index_of_refraction>
              <float sid="ior">1.45</float>
            </index_of_refraction>
          </lambert>
        </technique>
      </profile_COMMON>
    </effect>
  </library_effects>
  <library_images>
    <image id="BOX_STUFF21_jpg" name="BOX_STUFF21_jpg">
      <init_from>BOX_STUFF21.jpg</init_from>
    </image>
  </library_images>
  <library_materials>
    <material id="BOX_STUFF21_010-material" name="BOX_STUFF21.010">
      <instance_effect url="#BOX_STUFF21_010-effect"/>
    </material>
  </library_materials>
  <library_geometries>
    <geometry id="ID129_015-mesh" name="ID129.015">
      <mesh>
        <source id="ID129_015-mesh-positions">
          <float_array id="ID129_015-mesh-positions-array" count="480">62.08704 -105.55 -86.54829 -71.78436 105.549 -86.54829 -71.78436 -105.55 -86.54829 62.08704 105.549 -86.54829 -71.78436 -105.55 -86.54829 62.08704 -105.55 86.54915 62.08704 -105.55 -86.54829 -71.78436 -105.55 86.54915 62.08704 105.549 86.54915 62.08704 -105.55 -86.54829 62.08704 -105.55 86.54915 62.08704 105.549 -86.54829 62.08704 105.549 86.54915 -71.78436 105.549 -86.54829 62.08704 105.549 -86.54829 -71.78436 105.549 86.54915 -71.78436 105.549 -86.54829 -71.14296 -104.9621 -88.32994 -71.78436 -105.55 -86.54829 -71.14296 104.961 -88.32994 62.08704 105.549 86.54915 -71.78436 -105.55 86.54915 -71.78436 105.549 86.54915 62.08704 -105.55 86.54915 -71.78436 -105.55 86.54915 -71.14296 -107.3317 -85.96035 -71.14296 -107.3317 85.96115 -71.78436 -105.55 -86.54829 -71.14296 107.3306 85.96115 -71.78436 105.549 -86.54829 -71.78436 105.549 86.54915 -71.14296 107.3306 -85.96035 -71.14296 107.3306 -85.96035 -71.14296 104.961 -88.32994 -71.78436 105.549 -86.54829 63.22735 104.961 -88.32994 -71.14296 -104.9621 -88.32994 -71.14296 104.961 -88.32994 63.22735 -104.9621 -88.32994 -71.14296 -104.9621 -88.32994 -71.14296 -107.3317 -85.96035 -71.78436 -105.55 -86.54829 -71.14296 -104.9621 88.33075 -71.78436 105.549 86.54915 -71.78436 -105.55 86.54915 -71.14296 104.961 88.33075 63.22735 -107.3317 85.96115 -71.14296 -107.3317 -85.96035 63.22735 -107.3317 -85.96035 -71.14296 -107.3317 85.96115 -71.14296 -104.9621 88.33075 -71.78436 -105.55 86.54915 -71.14296 -107.3317 85.96115 -71.14296 107.3306 85.96115 63.22735 107.3306 -85.96035 -71.14296 107.3306 -85.96035 63.22735 107.3306 85.96115 -71.14296 107.3306 85.96115 -71.78436 105.549 86.54915 -71.14296 104.961 88.33075 -71.14296 107.3306 -85.96035 63.22735 104.961 -88.32994 -71.14296 104.961 -88.32994 63.22735 107.3306 -85.96035 63.22735 -104.9621 -88.32994 63.86874 105.549 -86.54829 63.86874 -105.55 -86.54829 63.22735 104.961 -88.32994 63.22735 -104.9621 -88.32994 -71.14296 -107.3317 -85.96035 -71.14296 -104.9621 -88.32994 63.22735 -107.3317 -85.96035 63.22735 -104.9621 88.33075 -71.14296 104.961 88.33075 -71.14296 -104.9621 88.33075 63.22735 104.961 88.33075 63.86874 -105.55 -86.54829 63.22735 -107.3317 85.96115 63.22735 -107.3317 -85.96035 63.86874 -105.55 86.54915 63.22735 -107.3317 85.96115 -71.14296 -104.9621 88.33075 -71.14296 -107.3317 85.96115 63.22735 -104.9621 88.33075 63.22735 107.3306 -85.96035 63.86874 105.549 86.54915 63.86874 105.549 -86.54829 63.22735 107.3306 85.96115 -71.14296 104.961 88.33075 63.22735 107.3306 85.96115 -71.14296 107.3306 85.96115 63.22735 104.961 88.33075 63.22735 107.3306 -85.96035 63.86874 105.549 -86.54829 63.22735 104.961 -88.32994 63.86874 105.549 -86.54829 63.86874 -105.55 86.54915 63.86874 -105.55 -86.54829 63.86874 105.549 86.54915 63.22735 -104.9621 -88.32994 63.86874 -105.55 -86.54829 63.22735 -107.3317 -85.96035 63.86874 105.549 86.54915 63.22735 -104.9621 88.33075 63.86874 -105.55 86.54915 63.22735 104.961 88.33075 63.22735 -104.9621 88.33075 63.22735 -107.3317 85.96115 63.86874 -105.55 86.54915 63.22735 107.3306 85.96115 63.22735 104.961 88.33075 63.86874 105.549 86.54915 -71.57237 105.5491 86.54915 -70.91464 105.549 4.04358e-4 -71.57236 -105.5499 86.54918 -70.91463 -105.5499 4.34875e-4 -70.91464 105.549 4.04358e-4 -71.57237 105.5491 86.54915 -70.26672 105.549 4.04358e-4 -69.60898 105.5491 86.54915 -71.57236 -105.5499 86.54918 -69.60898 -105.5499 86.54918 -71.57237 105.5491 86.54915 -69.60898 105.5491 86.54915 -70.91463 -105.5499 4.34875e-4 -70.26671 -105.5499 4.34875e-4 -71.57236 -105.5499 86.54918 -69.60898 -105.5499 86.54918 -70.26671 -105.5499 4.34875e-4 -70.91463 -105.5499 4.34875e-4 -70.26672 105.549 4.04358e-4 -70.91464 105.549 4.04358e-4 -69.60898 105.5491 86.54915 -69.60898 -105.5499 86.54918 -70.26672 105.549 4.04358e-4 -70.26671 -105.5499 4.34875e-4 -71.57238 105.549 -86.54835 -70.91461 -105.5499 4.34875e-4 -70.91464 105.549 4.04358e-4 -71.57235 -105.5499 -86.54832 -71.57238 105.549 -86.54835 -70.26672 105.549 4.04358e-4 -69.60899 105.549 -86.54835 -70.91464 105.549 4.04358e-4 -69.60897 -105.5499 -86.54832 -71.57238 105.549 -86.54835 -69.60899 105.549 -86.54835 -71.57235 -105.5499 -86.54832 -70.2667 -105.5499 4.34875e-4 -71.57235 -105.5499 -86.54832 -69.60897 -105.5499 -86.54832 -70.91461 -105.5499 4.34875e-4 -70.91461 -105.5499 4.34875e-4 -70.26672 105.549 4.04358e-4 -70.91464 105.549 4.04358e-4 -70.2667 -105.5499 4.34875e-4 -70.2667 -105.5499 4.34875e-4 -69.60899 105.549 -86.54835 -70.26672 105.549 4.04358e-4 -69.60897 -105.5499 -86.54832</float_array>
          <technique_common>
            <accessor source="#ID129_015-mesh-positions-array" count="160" stride="3">
              <param name="X" type="float"/>
              <param name="Y" type="float"/>
              <param name="Z" type="float"/>
            </accessor>
          </technique_common>
        </source>
        <source id="ID129_015-mesh-normals">
          <float_array id="ID129_015-mesh-normals-array" count="162">0 0 1 0 1 0 -1 0 0 0 -1 0 -0.9408892 0 -0.3387147 -0.9408855 0 -0.3387249 0 0 -1 -0.9408942 -0.3387007 0 -0.9408851 -0.3387262 0 -0.9408805 0.338739 0 -0.9408858 0.338724 0 -0.7961941 0.4278268 -0.4278311 -0.7962208 -0.4278019 -0.4278062 -0.9408841 0 0.3387288 -0.9408833 0 0.3387309 -0.7962096 -0.42781 0.4278186 -0.796186 0.427832 0.4278406 0 0.7071071 -0.7071065 0 0.7071049 -0.7071086 0.9408903 0 -0.3387115 0.9408862 0 -0.3387229 0 -0.7071049 -0.7071086 0.9408942 -0.3387007 0 0.9408888 -0.3387157 0 0 -0.7071061 0.7071075 0 -0.7071061 0.7071075 0.9408823 0.3387337 0 0.9408878 0.3387187 0 0 0.7071061 0.7071075 0 0.7071083 0.7071053 0.7961941 0.4278268 -0.4278311 1 0 0 0.7962222 -0.4278027 -0.4278027 0.9408844 0 0.3387277 0.9408842 0 0.3387285 0.7962104 -0.4278126 0.4278147 0.7961846 0.4278355 0.4278398 -0.9999712 0 -0.007599294 -0.9999712 0 -0.007599294 0 1 -1.08841e-6 0 1 -1.07755e-6 0 1.44565e-7 1 0 1.44565e-7 1 0 -1.44565e-7 -1 0 -1.44562e-7 -1 0.9999712 0 -0.007599353 0.9999712 0 -0.007599294 -0.9999712 0 0.007599472 -0.9999712 -1.35051e-7 0.007599353 0 1 -2.72108e-7 0 1.44562e-7 1 0 1.44567e-7 1 0.9999712 0 0.007599294 0.9999712 0 0.007599294</float_array>
          <technique_common>
            <accessor source="#ID129_015-mesh-normals-array" count="54" stride="3">
              <param name="X" type="float"/>
              <param name="Y" type="float"/>
              <param name="Z" type="float"/>
            </accessor>
          </technique_common>
        </source>
        <source id="ID129_015-mesh-map-0">
          <float_array id="ID129_015-mesh-map-0-array" count="456">0.3774848 0.005637288 0.003159165 0.4292168 0.3774848 0.4292168 0.003159165 0.4292168 0.3774848 0.005637288 0.003159165 0.005637288 0.3773289 0.4292168 0.003844082 0.005637288 0.3773289 0.005637288 0.003844082 0.005637288 0.3773289 0.4292168 0.003844082 0.4292168 0.3773289 0.4256544 0.003844082 0.003562331 0.3773289 0.003562331 0.003844082 0.003562331 0.3773289 0.4256544 0.003844082 0.4256544 0.003844082 0.005637288 0.3773289 0.4292168 0.3773289 0.005637288 0.3773289 0.4292168 0.003844082 0.005637288 0.003844082 0.4292168 0.005014896 0.4292168 0.3746021 0.4271874 0.3756343 0.4292168 0.3746021 0.4271874 0.005014896 0.4292168 0.006047189 0.4271874 0.005014896 0.005637288 0.3756343 0.4292168 0.005014896 0.4292168 0.3756343 0.4292168 0.005014896 0.005637288 0.3756343 0.005637288 0.7588955 0.9934212 0.7600328 0.4386375 0.7600328 0.9915304 0.7600328 0.4386375 0.7588955 0.9934212 0.7588955 0.4367467 0.005112767 0.4271874 0.3773289 0.4292168 0.003844082 0.4292168 0.3773289 0.4292168 0.005112767 0.4271874 0.3760603 0.4271874 0.3760603 0.4271874 0.3811731 0.4271874 0.3773289 0.4292168 0.3835125 0.002751827 0.7557528 0.4348815 0.3835125 0.4348815 0.7557528 0.4348815 0.3835125 0.002751827 0.7557528 0.002751827 0.7600328 0.4310169 0.7600328 0.4386375 0.7588955 0.4367467 0.3746021 0.4271874 0.005014896 0.4292168 0.3756343 0.4292168 0.005014896 0.4292168 0.3746021 0.4271874 0.006047189 0.4271874 0.9983013 0.9915304 0.7600328 0.4386375 0.9983013 0.4386375 0.7600328 0.4386375 0.9983013 0.9915304 0.7600328 0.9915304 0.7600328 0.9991509 0.7588955 0.9934212 0.7600328 0.9915304 0.005112767 0.4271874 0.3760603 0.002029359 0.3760603 0.4271874 0.3760603 0.002029359 0.005112767 0.4271874 0.005112767 0.002029359 0.001886904 0.4271874 0.005014896 0.4292168 0.006047189 0.4271874 0.3760603 0.4271874 0.3811731 0.002029359 0.3811731 0.4271874 0.3811731 0.002029359 0.3760603 0.4271874 0.3760603 0.002029359 0.7569172 0.4310169 0.3836343 0.4367467 0.7579598 0.4367467 0.3836343 0.4367467 0.7569172 0.4310169 0.3846768 0.4310169 0.9983013 0.4310169 0.7600328 0.4386375 0.7600328 0.4310169 0.7600328 0.4386375 0.9983013 0.4310169 0.9983013 0.4386375 0.3746021 0.002029359 0.006047189 0.4271874 0.3746021 0.4271874 0.006047189 0.4271874 0.3746021 0.002029359 0.006047189 0.002029359 0.7579598 0.4367467 0.761119 0.9915304 0.761119 0.4386375 0.761119 0.9915304 0.7579598 0.4367467 0.7579598 0.9934212 0.9983013 0.9915304 0.7600328 0.9991509 0.7600328 0.9915304 0.7600328 0.9991509 0.9983013 0.9915304 0.9983013 0.9991509 0.380475 0.4386375 0.3836343 0.9934212 0.3836343 0.4367467 0.3836343 0.9934212 0.380475 0.4386375 0.380475 0.9915304 0.006047189 0.4271874 0.001886904 0.002029359 0.001886904 0.4271874 0.001886904 0.002029359 0.006047189 0.4271874 0.006047189 0.002029359 0.380475 0.4386375 0.3836343 0.4367467 0.3846768 0.4310169 0.3836343 0.4367467 0.7579598 0.9934212 0.7579598 0.4367467 0.7579598 0.9934212 0.3836343 0.4367467 0.3836343 0.9934212 0.7569172 0.4310169 0.7579598 0.4367467 0.761119 0.4386375 0.3836343 0.9934212 0.7569172 0.9991509 0.7579598 0.9934212 0.7569172 0.9991509 0.3836343 0.9934212 0.3846768 0.9991509 0.7569172 0.9991509 0.761119 0.9915304 0.7579598 0.9934212 0.380475 0.9915304 0.3846768 0.9991509 0.3836343 0.9934212 0 0 0 0 0 0 0 0 0 0 0 0 0 0 0 0 0 0 0 0 0 0 0 0 0 0 0 0 0 0 0 0 0 0 0 0 0 0 0 0 0 0 0 0 0 0 0 0 0 0 0 0 0 0 0 0 0 0 0 0 0 0 0 0 0 0 0 0 0 0 0 0 0 0 0 0 0 0 0 0 0 0 0 0 0 0 0 0 0 0 0 0 0 0 0 0 0 0 0 0 0 0 0 0 0 0 0 0 0 0 0 0 0 0 0 0 0 0 0 0 0 0 0 0 0 0 0 0 0 0 0 0 0 0 0 0 0 0 0 0 0 0 0 0</float_array>
          <technique_common>
            <accessor source="#ID129_015-mesh-map-0-array" count="228" stride="2">
              <param name="S" type="float"/>
              <param name="T" type="float"/>
            </accessor>
          </technique_common>
        </source>
        <source id="ID129_015-mesh-map-1">
          <float_array id="ID129_015-mesh-map-1-array" count="456">0 0 0 0 0 0 0 0 0 0 0 0 0 0 0 0 0 0 0 0 0 0 0 0 0 0 0 0 0 0 0 0 0 0 0 0 0 0 0 0 0 0 0 0 0 0 0 0 0 0 0 0 0 0 0 0 0 0 0 0 0 0 0 0 0 0 0 0 0 0 0 0 0 0 0 0 0 0 0 0 0 0 0 0 0 0 0 0 0 0 0 0 0 0 0 0 0 0 0 0 0 0 0 0 0 0 0 0 0 0 0 0 0 0 0 0 0 0 0 0 0 0 0 0 0 0 0 0 0 0 0 0 0 0 0 0 0 0 0 0 0 0 0 0 0 0 0 0 0 0 0 0 0 0 0 0 0 0 0 0 0 0 0 0 0 0 0 0 0 0 0 0 0 0 0 0 0 0 0 0 0 0 0 0 0 0 0 0 0 0 0 0 0 0 0 0 0 0 0 0 0 0 0 0 0 0 0 0 0 0 0 0 0 0 0 0 0 0 0 0 0 0 0 0 0 0 0 0 0 0 0 0 0 0 0 0 0 0 0 0 0 0 0 0 0 0 0 0 0 0 0 0 0 0 0 0 0 0 0 0 0 0 0 0 0 0 0 0 0 0 0 0 0 0 0 0 0 0 0 0 0 0 0 0 0 0 0 0 0 0 0 0 0 0 0 0 0 0 0 0 0 0 0 0 0 0 0 0 0 0 0 0 0.003159165 0.9934212 0.003159165 0.7150839 0.3774848 0.9934212 0.3774848 0.7150839 0.3774848 0.9934212 0.003159165 0.7150839 0.003159165 0.7150839 0.003159165 0.9934212 0.003159165 0.7150839 0.003159165 0.9934212 0.003159165 0.7150839 0.003159165 0.9934212 0.3774848 0.9934212 0.3774848 0.9934212 0.003159165 0.9934212 0.003159165 0.9934212 0.003159165 0.9934212 0.3774848 0.9934212 0.3774848 0.7150839 0.3774848 0.7150839 0.3774848 0.9934212 0.3774848 0.9934212 0.3774848 0.9934212 0.3774848 0.7150839 0.3774848 0.7150839 0.3774848 0.7150839 0.003159165 0.7150839 0.003159165 0.7150839 0.003159165 0.7150839 0.3774848 0.7150839 0.003159165 0.9934212 0.3774848 0.9934212 0.003159165 0.7150839 0.3774848 0.7150839 0.003159165 0.7150839 0.3774848 0.9934212 0 0 0 0 0 0 0 0 0 0 0 0 0 0 0 0 0 0 0 0 0 0 0 0 0 0 0 0 0 0 0 0 0 0 0 0 0 0 0 0 0 0 0 0 0 0 0 0 0 0 0 0 0 0 0 0 0 0 0 0 0 0 0 0 0 0 0 0 0 0 0 0</float_array>
          <technique_common>
            <accessor source="#ID129_015-mesh-map-1-array" count="228" stride="2">
              <param name="S" type="float"/>
              <param name="T" type="float"/>
            </accessor>
          </technique_common>
        </source>
        <source id="ID129_015-mesh-map-2">
          <float_array id="ID129_015-mesh-map-2-array" count="456">0 0 0 0 0 0 0 0 0 0 0 0 0 0 0 0 0 0 0 0 0 0 0 0 0 0 0 0 0 0 0 0 0 0 0 0 0 0 0 0 0 0 0 0 0 0 0 0 0 0 0 0 0 0 0 0 0 0 0 0 0 0 0 0 0 0 0 0 0 0 0 0 0 0 0 0 0 0 0 0 0 0 0 0 0 0 0 0 0 0 0 0 0 0 0 0 0 0 0 0 0 0 0 0 0 0 0 0 0 0 0 0 0 0 0 0 0 0 0 0 0 0 0 0 0 0 0 0 0 0 0 0 0 0 0 0 0 0 0 0 0 0 0 0 0 0 0 0 0 0 0 0 0 0 0 0 0 0 0 0 0 0 0 0 0 0 0 0 0 0 0 0 0 0 0 0 0 0 0 0 0 0 0 0 0 0 0 0 0 0 0 0 0 0 0 0 0 0 0 0 0 0 0 0 0 0 0 0 0 0 0 0 0 0 0 0 0 0 0 0 0 0 0 0 0 0 0 0 0 0 0 0 0 0 0 0 0 0 0 0 0 0 0 0 0 0 0 0 0 0 0 0 0 0 0 0 0 0 0 0 0 0 0 0 0 0 0 0 0 0 0 0 0 0 0 0 0 0 0 0 0 0 0 0 0 0 0 0 0 0 0 0 0 0 0 0 0 0 0 0 0 0 0 0 0 0 0 0 0 0 0 0 0 0 0 0 0 0 0 0 0 0 0 0 0 0 0 0 0 0 0 0 0 0 0 0 0 0 0 0 0 0 0 0 0 0 0 0 0 0 0 0 0 0 0 0 0 0 0 0 0 0 0 0 0 0 0 0 0 0 0 0 0 0 0 0 0 0 0 0 0 0 0 0 0.003159165 0.4367467 0.3774848 0.7150839 0.003159165 0.7150839 0.3774848 0.7150839 0.003159165 0.4367467 0.3774848 0.4367467 0.003159165 0.4367467 0.003159165 0.7150839 0.003159165 0.4367467 0.003159165 0.7150839 0.003159165 0.4367467 0.003159165 0.7150839 0.3774848 0.4367467 0.003159165 0.4367467 0.003159165 0.4367467 0.003159165 0.4367467 0.3774848 0.4367467 0.3774848 0.4367467 0.3774848 0.7150839 0.3774848 0.4367467 0.3774848 0.4367467 0.3774848 0.4367467 0.3774848 0.7150839 0.3774848 0.7150839 0.3774848 0.7150839 0.003159165 0.7150839 0.003159165 0.7150839 0.003159165 0.7150839 0.3774848 0.7150839 0.3774848 0.7150839 0.3774848 0.7150839 0.003159165 0.4367467 0.003159165 0.7150839 0.003159165 0.4367467 0.3774848 0.7150839 0.3774848 0.4367467</float_array>
          <technique_common>
            <accessor source="#ID129_015-mesh-map-2-array" count="228" stride="2">
              <param name="S" type="float"/>
              <param name="T" type="float"/>
            </accessor>
          </technique_common>
        </source>
        <vertices id="ID129_015-mesh-vertices">
          <input semantic="POSITION" source="#ID129_015-mesh-positions"/>
        </vertices>
        <triangles material="BOX_STUFF21_010-material" count="76">
          <input semantic="VERTEX" source="#ID129_015-mesh-vertices" offset="0"/>
          <input semantic="NORMAL" source="#ID129_015-mesh-normals" offset="1"/>
          <input semantic="TEXCOORD" source="#ID129_015-mesh-map-0" offset="2" set="0"/>
          <input semantic="TEXCOORD" source="#ID129_015-mesh-map-1" offset="2" set="1"/>
          <input semantic="TEXCOORD" source="#ID129_015-mesh-map-2" offset="2" set="2"/>
          <p>0 0 0 1 0 1 2 0 2 1 0 3 0 0 4 3 0 5 4 1 6 5 1 7 6 1 8 5 1 9 4 1 10 7 1 11 8 2 12 9 2 13 10 2 14 9 2 15 8 2 16 11 2 17 12 3 18 13 3 19 14 3 20 13 3 21 12 3 22 15 3 23 16 4 24 17 4 25 18 4 26 17 5 27 16 5 28 19 5 29 20 6 30 21 6 31 22 6 32 21 6 33 20 6 34 23 6 35 24 7 36 25 7 37 26 7 38 25 8 39 24 8 40 27 8 41 28 9 42 29 9 43 30 9 44 29 10 45 28 10 46 31 10 47 32 11 48 33 11 49 34 11 50 35 6 51 36 6 52 37 6 53 36 6 54 35 6 55 38 6 56 39 12 57 40 12 58 41 12 59 42 13 60 43 13 61 44 13 62 43 14 63 42 14 64 45 14 65 46 3 66 47 3 67 48 3 68 47 3 69 46 3 70 49 3 71 50 15 72 51 15 73 52 15 74 53 1 75 54 1 76 55 1 77 54 1 78 53 1 79 56 1 80 57 16 81 58 16 82 59 16 83 60 17 84 61 17 85 62 17 86 61 18 87 60 18 88 63 18 89 64 19 90 65 19 91 66 19 92 65 20 93 64 20 94 67 20 95 68 21 96 69 21 97 70 21 98 69 21 99 68 21 100 71 21 101 72 0 102 73 0 103 74 0 104 73 0 105 72 0 106 75 0 107 76 22 108 77 22 109 78 22 110 77 23 111 76 23 112 79 23 113 80 24 114 81 24 115 82 24 116 81 25 117 80 25 118 83 25 119 84 26 120 85 26 121 86 26 122 85 27 123 84 27 124 87 27 125 88 28 126 89 28 127 90 28 128 89 29 129 88 29 130 91 29 131 92 30 132 93 30 133 94 30 134 95 31 135 96 31 136 97 31 137 96 31 138 95 31 139 98 31 140 99 32 141 100 32 142 101 32 143 102 33 144 103 33 145 104 33 146 103 34 147 102 34 148 105 34 149 106 35 150 107 35 151 108 35 152 109 36 153 110 36 154 111 36 155 112 37 156 113 37 157 114 37 158 115 38 159 114 38 160 113 38 161 116 39 162 117 39 163 118 39 164 119 40 165 118 40 166 117 40 167 120 41 168 121 41 169 122 41 170 123 42 171 122 42 172 121 42 173 124 3 174 125 3 175 126 3 176 127 3 177 126 3 178 125 3 179 128 43 180 129 43 181 130 43 182 131 44 183 130 44 184 129 44 185 132 45 186 133 45 187 134 45 188 135 46 189 134 46 190 133 46 191 136 47 192 137 47 193 138 47 194 137 48 195 136 48 196 139 48 197 140 1 198 141 1 199 142 1 200 141 49 201 140 49 202 143 49 203 144 43 204 145 43 205 146 43 206 145 43 207 144 43 208 147 43 209 148 3 210 149 3 211 150 3 212 149 3 213 148 3 214 151 3 215 152 50 216 153 50 217 154 50 218 153 51 219 152 51 220 155 51 221 156 52 222 157 52 223 158 52 224 157 53 225 156 53 226 159 53 227</p>
        </triangles>
      </mesh>
    </geometry>
  </library_geometries>
  <library_visual_scenes>
    <visual_scene id="Scene" name="Scene">
      <node id="BoxD" name="BoxD" type="NODE">
        <matrix sid="transform">0.0254 0 0 0 0 0.0254 0 0 0 0 0.0254 0 0 0 0 1</matrix>
        <node id="group_13" name="group_13" type="NODE">
          <matrix sid="transform">0.18183 0 0 6.79989e-15 0 0.18183 0 0 0 0 0.18183 0 0 0 0 1</matrix>
          <node id="group_17" name="group_17" type="NODE">
            <matrix sid="transform">7.54979e-8 -0.6774066 5.12238e-8 107.3307 0 5.11428e-8 0.6784795 88.32994 -0.9999999 -5.11428e-8 3.86729e-15 63.86873 0 0 0 0.9999999</matrix>
            <instance_geometry url="#ID129_015-mesh" name="group_17">
              <bind_material>
                <technique_common>
                  <instance_material symbol="BOX_STUFF21_010-material" target="#BOX_STUFF21_010-material">
                    <bind_vertex_input semantic="ID129_015-mesh-map-0" input_semantic="TEXCOORD" input_set="0"/>
                    <bind_vertex_input semantic="ID129_015-mesh-map-1" input_semantic="TEXCOORD" input_set="1"/>
                    <bind_vertex_input semantic="ID129_015-mesh-map-2" input_semantic="TEXCOORD" input_set="2"/>
                  </instance_material>
                </technique_common>
              </bind_material>
            </instance_geometry>
          </node>
        </node>
      </node>
    </visual_scene>
  </library_visual_scenes>
  <scene>
    <instance_visual_scene url="#Scene"/>
  </scene>
</COLLADA>