<?xml version="1.0" encoding="utf-8"?>
<COLLADA xmlns="http://www.collada.org/2005/11/COLLADASchema" version="1.4.1" xmlns:xsi="http://www.w3.org/2001/XMLSchema-instance">
  <asset>
    <contributor>
      <author>Blender User</author>
      <authoring_tool>Blender 2.83.4 commit date:2020-08-05, commit time:06:00, hash:c113af82881a</authoring_tool>
    </contributor>
    <created>2020-09-13T10:00:11</created>
    <modified>2020-09-13T10:00:11</modified>
    <unit name="meter" meter="1"/>
    <up_axis>Z_UP</up_axis>
  </asset>
  <library_effects>
    <effect id="BOX_STUFF16_008-effect">
      <profile_COMMON>
        <newparam sid="BOX_STUFF16_jpg_001_jpg-surface">
          <surface type="2D">
            <init_from>BOX_STUFF16_jpg_001_jpg</init_from>
          </surface>
        </newparam>
        <newparam sid="BOX_STUFF16_jpg_001_jpg-sampler">
          <sampler2D>
            <source>BOX_STUFF16_jpg_001_jpg-surface</source>
          </sampler2D>
        </newparam>
        <technique sid="common">
          <lambert>
            <emission>
              <color sid="emission">0 0 0 1</color>
            </emission>
            <diffuse>
              <texture texture="BOX_STUFF16_jpg_001_jpg-sampler" texcoord="ID61_008-mesh-map-0"/>
            </diffuse>
            <index_of_refraction>
              <float sid="ior">1.45</float>
            </index_of_refraction>
          </lambert>
        </technique>
      </profile_COMMON>
    </effect>
  </library_effects>
  <library_images>
    <image id="BOX_STUFF16_jpg_001_jpg" name="BOX_STUFF16_jpg_001_jpg">
      <init_from>BOX_STUFF16.jpg.001.jpg</init_from>
    </image>
  </library_images>
  <library_materials>
    <material id="BOX_STUFF16_008-material" name="BOX_STUFF16.008">
      <instance_effect url="#BOX_STUFF16_008-effect"/>
    </material>
  </library_materials>
  <library_geometries>
    <geometry id="ID61_008-mesh" name="ID61.008">
      <mesh>
        <source id="ID61_008-mesh-positions">
          <float_array id="ID61_008-mesh-positions-array" count="480">-82.64614 107.4702 63.38967 -0.6652832 107.3519 62.66666 -82.62642 107.4696 61.19532 -0.6717835 107.3521 63.3908 -82.95701 -108.2799 63.44794 -82.62642 107.4696 61.19532 -82.9373 -108.2805 61.25358 -82.64614 107.4702 63.38967 -0.9826584 -108.398 63.44906 -82.64614 107.4702 63.38967 -82.95701 -108.2799 63.44794 -0.6717835 107.3521 63.3908 -0.6652832 107.3519 62.66666 -0.9826584 -108.398 63.44906 -0.9761582 -108.3982 62.72492 -0.6717835 107.3521 63.3908 -82.62642 107.4696 61.19532 -0.9761582 -108.3982 62.72492 -82.9373 -108.2805 61.25358 -0.6652832 107.3519 62.66666 -0.9761582 -108.3982 62.72492 -82.95701 -108.2799 63.44794 -82.9373 -108.2805 61.25358 -0.9826584 -108.398 63.44906 80.77919 -107.8993 -56.9071 -79.52301 -109.6505 -57.2556 -80.17238 -107.6584 -57.97735 80.1143 -109.8895 -56.19408 80.1143 -109.8895 -56.19408 -80.32307 -109.6181 63.07001 -79.52301 -109.6505 -57.2556 79.31419 -109.857 64.13151 -79.52301 -109.6505 -57.2556 -82.16744 -106.9981 -57.2739 -80.17238 -107.6584 -57.97735 -79.84903 108.0917 -58.03339 80.77919 -107.8993 -56.9071 -80.17238 -107.6584 -57.97735 81.10249 107.8507 -56.96313 82.76669 -107.245 -56.17716 80.1143 -109.8895 -56.19408 80.77919 -107.8993 -56.9071 -80.32307 -109.6181 63.07001 79.9696 -107.8665 64.85221 -80.98197 -107.6256 63.78191 79.31419 -109.857 64.13151 -80.32307 -109.6181 63.07001 -82.16744 -106.9981 -57.2739 -79.52301 -109.6505 -57.2556 -82.96751 -106.9656 63.05171 82.76669 -107.245 -56.17716 79.31419 -109.857 64.13151 80.1143 -109.8895 -56.19408 81.96659 -107.2125 64.14841 -81.84606 107.4377 -57.3296 -80.17238 -107.6584 -57.97735 -82.16744 -106.9981 -57.2739 -79.84903 108.0917 -58.03339 81.10249 107.8507 -56.96313 82.76669 -107.245 -56.17716 80.77919 -107.8993 -56.9071 83.08799 107.1908 -56.23286 -79.19369 110.0822 -57.31267 81.10249 107.8507 -56.96313 -79.84903 108.0917 -58.03339 80.4436 109.8432 -56.25115 -80.98197 -107.6256 63.78191 80.76589 -107.8988 -54.91581 -80.18562 -107.6578 -55.98607 79.9696 -107.8665 64.85221 -80.32307 -109.6181 63.07001 -80.98197 -107.6256 63.78191 -82.96751 -106.9656 63.05171 81.96659 -107.2125 64.14841 79.9696 -107.8665 64.85221 79.31419 -109.857 64.13151 -82.96751 -106.9656 63.05171 -81.84606 107.4377 -57.3296 -82.16744 -106.9981 -57.2739 -82.64614 107.4702 62.99601 83.08799 107.1908 -56.23286 81.96659 -107.2125 64.14841 82.76669 -107.245 -56.17716 82.28799 107.2233 64.09272 -79.19369 110.0822 -57.31267 -79.84903 108.0917 -58.03339 -81.84606 107.4377 -57.3296 83.08799 107.1908 -56.23286 81.10249 107.8507 -56.96313 80.4436 109.8432 -56.25115 -79.99375 110.1147 63.01291 80.4436 109.8432 -56.25115 -79.19369 110.0822 -57.31267 79.6435 109.8757 64.07441 79.9696 -107.8665 64.85221 81.08929 107.8513 -54.97184 80.76589 -107.8988 -54.91581 80.29289 107.8836 64.79621 80.76589 -107.8988 -54.91581 -79.86228 108.0922 -56.0421 -80.18562 -107.6578 -55.98607 81.08929 107.8513 -54.97184 -79.86228 108.0922 -56.0421 -80.98197 -107.6256 63.78191 -80.18562 -107.6578 -55.98607 -80.65863 108.1245 63.72591 -80.98197 -107.6256 63.78191 -82.64614 107.4702 62.99601 -82.96751 -106.9656 63.05171 -80.65863 108.1245 63.72591 81.96659 -107.2125 64.14841 80.29289 107.8836 64.79621 79.9696 -107.8665 64.85221 82.28799 107.2233 64.09272 -82.64614 107.4702 62.99601 -79.19369 110.0822 -57.31267 -81.84606 107.4377 -57.3296 -79.99375 110.1147 63.01291 80.4436 109.8432 -56.25115 82.28799 107.2233 64.09272 83.08799 107.1908 -56.23286 79.6435 109.8757 64.07441 80.29289 107.8836 64.79621 -79.99375 110.1147 63.01291 -80.65863 108.1245 63.72591 79.6435 109.8757 64.07441 81.08929 107.8513 -54.97184 -80.65863 108.1245 63.72591 -79.86228 108.0922 -56.0421 80.29289 107.8836 64.79621 -79.99375 110.1147 63.01291 -82.64614 107.4702 62.99601 -80.65863 108.1245 63.72591 82.28799 107.2233 64.09272 79.6435 109.8757 64.07441 80.29289 107.8836 64.79621 80.99818 -108.5164 63.90721 -0.9826737 -108.398 64.63023 -0.9761734 -108.3982 63.90608 80.97846 -108.5157 66.10157 -0.9826737 -108.398 64.63023 -0.6652908 107.3518 63.84782 -0.9761734 -108.3982 63.90608 -0.6717987 107.352 64.57196 -0.6652908 107.3518 63.84782 80.99818 -108.5164 63.90721 -0.9761734 -108.3982 63.90608 81.30905 107.2337 63.84894 81.30905 107.2337 63.84894 80.97846 -108.5157 66.10157 80.99818 -108.5164 63.90721 81.28935 107.2343 66.04331 80.97846 -108.5157 66.10157 -0.6717987 107.352 64.57196 -0.9826737 -108.398 64.63023 81.28935 107.2343 66.04331 -0.6717987 107.352 64.57196 81.30905 107.2337 63.84894 -0.6652908 107.3518 63.84782 81.28935 107.2343 66.04331</float_array>
          <technique_common>
            <accessor source="#ID61_008-mesh-positions-array" count="160" stride="3">
              <param name="X" type="float"/>
              <param name="Y" type="float"/>
              <param name="Z" type="float"/>
            </accessor>
          </technique_common>
        </source>
        <source id="ID61_008-mesh-normals">
          <float_array id="ID61_008-mesh-normals-array" count="228">0.001440703 0.999999 -2.71448e-4 0.001440703 0.999999 -2.63221e-4 -0.9999587 0.001438438 -0.008980631 -0.9999586 0.001438379 -0.008987665 -1.33624e-5 2.70098e-4 1 -1.33624e-5 2.70063e-4 1 0.9999588 -0.001438379 0.00897628 0.9999587 -0.001438379 0.008976697 0.01794838 -2.95845e-4 -0.9998389 0.01794815 -2.95844e-4 -0.9998389 -0.001440703 -0.999999 2.61246e-4 -0.001440703 -0.9999989 2.79071e-4 0.005748331 -0.3389734 -0.9407784 0.005748331 -0.3389717 -0.940779 -0.001498818 -0.9999989 2.59146e-4 -0.001498281 -0.9999989 2.60034e-4 -0.4231551 -0.4273945 -0.7989203 0.006648957 -2.69712e-4 -0.999978 0.006649076 -2.69658e-4 -0.999978 0.4324527 -0.4286673 -0.7932397 -0.006763756 -0.3384336 0.940966 -0.006763279 -0.3384625 0.9409557 -0.7081468 -0.7060508 -0.004518508 -0.7081583 -0.7060393 -0.004517853 0.7060276 -0.7081675 0.004885852 0.7060296 -0.7081656 0.004886031 -0.3324587 2.53288e-4 -0.9431179 -0.3324559 2.53249e-4 -0.9431188 0.3449672 -7.607e-4 -0.9386145 0.3449737 -7.60695e-4 -0.9386121 0.006763637 0.3384708 -0.9409527 0.006763577 0.3384652 -0.9409547 0.001498997 0.9999989 -2.58962e-4 0.00149846 0.9999989 -2.59772e-4 -0.4337234 -0.4269343 0.7934805 0.4218975 -0.4282567 0.7991237 -0.9999768 0.001496911 -0.006649434 -0.9999768 0.001496851 -0.006649494 0.9999768 -0.001496613 0.006649613 0.9999768 -0.00149697 0.006648898 -0.4218729 0.4282491 -0.7991408 0.4337406 0.426957 -0.7934589 0.001498818 0.9999989 -2.60087e-4 0.001498878 0.9999989 -2.60087e-4 -0.9999768 0.001497268 -0.006648778 -0.9999768 0.001496613 -0.006649732 -0.006648957 2.69659e-4 0.9999779 -0.006649076 2.69661e-4 0.999978 0.9999768 -0.001496911 0.006649374 0.9999768 -0.001496732 0.006649374 -0.344945 7.60748e-4 0.9386227 -0.3449505 7.60582e-4 0.9386206 0.3324655 -2.53397e-4 0.9431154 0.3324674 -2.5338e-4 0.9431148 -0.7060306 0.7081645 -0.004885852 -0.7060281 0.708167 -0.004885852 0.7081524 0.7060453 0.004517555 0.7081404 0.7060572 0.004517972 -0.005748689 0.338962 0.9407826 -0.005748033 0.338997 0.9407699 -0.001498401 -0.9999989 2.59876e-4 -0.001498401 -0.9999989 2.59527e-4 -0.4324303 0.4286569 0.7932575 0.4231578 0.4274091 0.7989112 -0.001441836 -0.9999989 2.80705e-4 -0.001441419 -0.999999 2.98423e-4 -0.9999587 0.001438438 -0.008976638 -0.9999586 0.001438438 -0.008987188 1.33955e-5 -2.70045e-4 -1 1.32148e-5 -2.70098e-4 -1 0.9999586 -0.001438498 0.008987665 0.9999587 -0.001438379 0.008980512 -0.0179485 2.9588e-4 0.9998389 -0.01794862 2.95846e-4 0.9998389 0.001440703 0.999999 -2.96123e-4 0.001440763 0.999999 -2.60587e-4</float_array>
          <technique_common>
            <accessor source="#ID61_008-mesh-normals-array" count="76" stride="3">
              <param name="X" type="float"/>
              <param name="Y" type="float"/>
              <param name="Z" type="float"/>
            </accessor>
          </technique_common>
        </source>
        <source id="ID61_008-mesh-map-0">
          <float_array id="ID61_008-mesh-map-0-array" count="456">0.003530979 0.423999 0.003530979 0.7084669 0.003530979 0.423999 0.003530979 0.7084669 0.003530979 0.423999 0.003530979 0.7084669 0.3861045 0.423999 0.003530979 0.423999 0.3861045 0.423999 0.003530979 0.423999 0.3861045 0.423999 0.003530979 0.423999 0.3861045 0.7084669 0.003530979 0.423999 0.3861045 0.423999 0.003530979 0.423999 0.3861045 0.7084669 0.003530979 0.7084669 0.003530979 0.7084669 0.3861045 0.7084669 0.3861045 0.7084669 0.3861045 0.7084669 0.003530979 0.7084669 0.003530979 0.7084669 0.003530979 0.423999 0.3861045 0.7084669 0.3861045 0.423999 0.3861045 0.7084669 0.003530979 0.423999 0.003530979 0.7084669 0.3861045 0.7084669 0.3861045 0.423999 0.3861045 0.423999 0.3861045 0.423999 0.3861045 0.7084669 0.3861045 0.7084669 0 0 0 0 0 0 0 0 0 0 0 0 0 0 0 0 0 0 0 0 0 0 0 0 0 0 0 0 0 0 0 0 0 0 0 0 0 0 0 0 0 0 0 0 0 0 0 0 0 0 0 0 0 0 0 0 0 0 0 0 0 0 0 0 0 0 0 0 0 0 0 0 0 0 0 0 0 0 0 0 0 0 0 0 0 0 0 0 0 0 0 0 0 0 0 0 0 0 0 0 0 0 0 0 0 0 0 0 0 0 0 0 0 0 0 0 0 0 0 0 0 0 0 0 0 0 0 0 0 0 0 0 0 0 0 0 0 0 0 0 0 0 0 0 0 0 0 0 0 0 0 0 0 0 0 0 0 0 0 0 0 0 0 0 0 0 0 0 0 0 0 0 0 0 0 0 0 0 0 0 0 0 0 0 0 0 0 0 0 0 0 0 0 0 0 0 0 0 0 0 0 0 0 0 0 0 0 0 0 0 0 0 0 0 0 0 0 0 0 0 0 0 0 0 0 0 0 0 0 0 0 0 0 0 0 0 0 0 0 0 0 0 0 0 0 0 0 0 0 0 0 0 0 0 0 0 0 0 0 0 0 0 0 0 0 0 0 0 0 0 0 0 0 0 0 0 0 0 0 0 0 0 0 0 0 0 0 0 0 0 0 0 0 0 0 0 0 0 0 0 0 0 0 0 0 0 0 0 0 0 0 0 0 0 0 0 0 0 0 0 0 0 0 0 0 0 0 0 0 0 0 0 0 0 0 0 0 0 0 0 0 0 0 0 0 0 0 0 0 0 0 0 0 0 0 0 0 0 0 0 0 0 0 0 0 0 0 0 0 0 0 0 0 0 0 0 0 0 0 0 0 0 0 0</float_array>
          <technique_common>
            <accessor source="#ID61_008-mesh-map-0-array" count="228" stride="2">
              <param name="S" type="float"/>
              <param name="T" type="float"/>
            </accessor>
          </technique_common>
        </source>
        <source id="ID61_008-mesh-map-1">
          <float_array id="ID61_008-mesh-map-1-array" count="456">0 0 0 0 0 0 0 0 0 0 0 0 0 0 0 0 0 0 0 0 0 0 0 0 0 0 0 0 0 0 0 0 0 0 0 0 0 0 0 0 0 0 0 0 0 0 0 0 0 0 0 0 0 0 0 0 0 0 0 0 0 0 0 0 0 0 0 0 0 0 0 0 0.7763532 0.9894795 0.7798842 0.4331901 0.7763532 0.4309096 0.7798842 0.4331901 0.7763532 0.9894795 0.7798842 0.987199 0.998288 0.9873174 0.7874664 0.4296084 1.000827 0.4333531 0.7874664 0.4296084 0.998288 0.9873174 0.7849278 0.9835727 0.7798842 0.4331901 0.7751879 0.423999 0.7763532 0.4309096 0.3937797 0.4309096 0.7763532 0.9894795 0.7763532 0.4309096 0.7763532 0.9894795 0.3937797 0.4309096 0.3937797 0.9894795 0.7751879 0.9963901 0.7798842 0.987199 0.7763532 0.9894795 0.7874664 0.4296084 0.7836462 0.9857688 0.7862057 0.4272438 0.7836462 0.9857688 0.7874664 0.4296084 0.7849278 0.9835727 0.7798842 0.4207046 0.7751879 0.003124475 0.7798842 0.003124475 0.7751879 0.003124475 0.7798842 0.4207046 0.7751879 0.4207046 0.9982459 0.9964253 0.7849278 0.9835727 0.998288 0.9873174 0.7849278 0.9835727 0.9982459 0.9964253 0.7848856 0.9926807 0.394945 0.423999 0.7763532 0.4309096 0.7751879 0.423999 0.7763532 0.4309096 0.394945 0.423999 0.3937797 0.4309096 0.3937797 0.9894795 0.7751879 0.9963901 0.7763532 0.9894795 0.7751879 0.9963901 0.3937797 0.9894795 0.394945 0.9963901 0.3902487 0.4331901 0.3937797 0.9894795 0.3937797 0.4309096 0.3937797 0.9894795 0.3902487 0.4331901 0.3902487 0.987199 0.004704654 0.4198999 0.3887576 0.009046792 0.007250726 0.004034698 0.3887576 0.009046792 0.004704654 0.4198999 0.3862116 0.4249119 0.7798842 0.4207046 0.7763532 0.4231924 0.7751879 0.4207046 0.7848856 0.9926807 0.7836462 0.9857688 0.7849278 0.9835727 0.7751879 0.4207046 0.394945 0.003124475 0.7751879 0.003124475 0.394945 0.003124475 0.7751879 0.4207046 0.394945 0.4207046 0.005394399 0.003124475 0.3856374 0.4207046 0.3856374 0.003124475 0.3856374 0.4207046 0.005394399 0.003124475 0.005394399 0.4207046 0.3902487 0.4331901 0.3937797 0.4309096 0.394945 0.423999 0.394945 0.9963901 0.3937797 0.9894795 0.3902487 0.987199 0.004988551 0.4106506 0.3851713 -0.002179265 0.007541239 -0.007150471 0.3851713 -0.002179265 0.004988551 0.4106506 0.3826186 0.4156217 0.3860236 0.4245273 0.003798723 0.008696854 0.3860808 0.008891284 0.003798723 0.008696854 0.3860236 0.4245273 0.003741443 0.4243328 0.3907333 0.4148158 -9.71461e-7 -3.41956e-5 0.3902975 -8.69289e-4 -9.71461e-7 -3.41956e-5 0.3907333 0.4148158 4.34896e-4 0.4156509 0.003371775 0.00498265 0.3855967 0.4208131 0.3856539 0.00517714 0.3855967 0.4208131 0.003371775 0.00498265 0.003314495 0.4206187 0.7763532 0.4231924 0.394945 0.4207046 0.7751879 0.4207046 0.394945 0.4207046 0.7763532 0.4231924 0.3937797 0.4231924 0.3856374 0.4207046 0.004229128 0.4231924 0.3868026 0.4231924 0.004229128 0.4231924 0.3856374 0.4207046 0.005394399 0.4207046 0.394945 0.4207046 0.3902487 0.003124475 0.394945 0.003124475 0.3902487 0.003124475 0.394945 0.4207046 0.3902487 0.4207046 0.3851713 -0.002179265 0.3888835 0.4157867 0.3914362 -0.002014279 0.3888835 0.4157867 0.3851713 -0.002179265 0.3826186 0.4156217 0.3841579 0.4181933 0.004988551 0.4106506 0.003418922 0.4131813 0.004988551 0.4106506 0.3841579 0.4181933 0.3826186 0.4156217 0.3887576 0.002328217 0.004704654 0.4131813 0.007250726 -0.002683818 0.004704654 0.4131813 0.3887576 0.002328217 0.3862116 0.4181933 0.3902487 0.4207046 0.394945 0.4207046 0.3937797 0.4231924 0.3888835 0.4157867 0.3826186 0.4156217 0.3841579 0.4181933 0 0 0 0 0 0 0 0 0 0 0 0 0 0 0 0 0 0 0 0 0 0 0 0 0 0 0 0 0 0 0 0 0 0 0 0 0 0 0 0 0 0 0 0 0 0 0 0 0 0 0 0 0 0 0 0 0 0 0 0 0 0 0 0 0 0 0 0 0 0 0 0</float_array>
          <technique_common>
            <accessor source="#ID61_008-mesh-map-1-array" count="228" stride="2">
              <param name="S" type="float"/>
              <param name="T" type="float"/>
            </accessor>
          </technique_common>
        </source>
        <source id="ID61_008-mesh-map-2">
          <float_array id="ID61_008-mesh-map-2-array" count="456">0 0 0 0 0 0 0 0 0 0 0 0 0 0 0 0 0 0 0 0 0 0 0 0 0 0 0 0 0 0 0 0 0 0 0 0 0 0 0 0 0 0 0 0 0 0 0 0 0 0 0 0 0 0 0 0 0 0 0 0 0 0 0 0 0 0 0 0 0 0 0 0 0 0 0 0 0 0 0 0 0 0 0 0 0 0 0 0 0 0 0 0 0 0 0 0 0 0 0 0 0 0 0 0 0 0 0 0 0 0 0 0 0 0 0 0 0 0 0 0 0 0 0 0 0 0 0 0 0 0 0 0 0 0 0 0 0 0 0 0 0 0 0 0 0 0 0 0 0 0 0 0 0 0 0 0 0 0 0 0 0 0 0 0 0 0 0 0 0 0 0 0 0 0 0 0 0 0 0 0 0 0 0 0 0 0 0 0 0 0 0 0 0 0 0 0 0 0 0 0 0 0 0 0 0 0 0 0 0 0 0 0 0 0 0 0 0 0 0 0 0 0 0 0 0 0 0 0 0 0 0 0 0 0 0 0 0 0 0 0 0 0 0 0 0 0 0 0 0 0 0 0 0 0 0 0 0 0 0 0 0 0 0 0 0 0 0 0 0 0 0 0 0 0 0 0 0 0 0 0 0 0 0 0 0 0 0 0 0 0 0 0 0 0 0 0 0 0 0 0 0 0 0 0 0 0 0 0 0 0 0 0 0 0 0 0 0 0 0 0 0 0 0 0 0 0 0 0 0 0 0 0 0 0 0 0 0 0 0 0 0 0 0 0 0 0 0 0 0 0 0 0 0 0 0 0 0 0 0 0 0 0 0 0 0 0 0 0 0 0 0 0 0 0 0 0 0 0 0 0 0 0 0 0 0.3861045 0.9929348 0.3861045 0.7084669 0.3861045 0.7084669 0.3861045 0.7084669 0.3861045 0.9929348 0.3861045 0.9929348 0.3861045 0.7084669 0.003530979 0.7084669 0.3861045 0.7084669 0.003530979 0.7084669 0.3861045 0.7084669 0.003530979 0.7084669 0.003530979 0.7084669 0.3861045 0.9929348 0.3861045 0.7084669 0.3861045 0.9929348 0.003530979 0.7084669 0.003530979 0.9929348 0.003530979 0.9929348 0.3861045 0.9929348 0.3861045 0.9929348 0.3861045 0.9929348 0.003530979 0.9929348 0.003530979 0.9929348 0.3861045 0.9929348 0.003530979 0.7084669 0.3861045 0.7084669 0.003530979 0.7084669 0.3861045 0.9929348 0.003530979 0.9929348 0.003530979 0.7084669 0.003530979 0.9929348 0.003530979 0.7084669 0.003530979 0.9929348 0.003530979 0.7084669 0.003530979 0.9929348</float_array>
          <technique_common>
            <accessor source="#ID61_008-mesh-map-2-array" count="228" stride="2">
              <param name="S" type="float"/>
              <param name="T" type="float"/>
            </accessor>
          </technique_common>
        </source>
        <vertices id="ID61_008-mesh-vertices">
          <input semantic="POSITION" source="#ID61_008-mesh-positions"/>
        </vertices>
        <triangles material="BOX_STUFF16_008-material" count="76">
          <input semantic="VERTEX" source="#ID61_008-mesh-vertices" offset="0"/>
          <input semantic="NORMAL" source="#ID61_008-mesh-normals" offset="1"/>
          <input semantic="TEXCOORD" source="#ID61_008-mesh-map-0" offset="2" set="0"/>
          <input semantic="TEXCOORD" source="#ID61_008-mesh-map-1" offset="2" set="1"/>
          <input semantic="TEXCOORD" source="#ID61_008-mesh-map-2" offset="2" set="2"/>
          <p>0 0 0 1 0 1 2 0 2 1 1 3 0 1 4 3 1 5 4 2 6 5 2 7 6 2 8 5 3 9 4 3 10 7 3 11 8 4 12 9 4 13 10 4 14 9 5 15 8 5 16 11 5 17 12 6 18 13 6 19 14 6 20 13 7 21 12 7 22 15 7 23 16 8 24 17 8 25 18 8 26 17 9 27 16 9 28 19 9 29 20 10 30 21 10 31 22 10 32 21 11 33 20 11 34 23 11 35 24 12 36 25 12 37 26 12 38 25 13 39 24 13 40 27 13 41 28 14 42 29 14 43 30 14 44 29 15 45 28 15 46 31 15 47 32 16 48 33 16 49 34 16 50 35 17 51 36 17 52 37 17 53 36 18 54 35 18 55 38 18 56 39 19 57 40 19 58 41 19 59 42 20 60 43 20 61 44 20 62 43 21 63 42 21 64 45 21 65 46 22 66 47 22 67 48 22 68 47 23 69 46 23 70 49 23 71 50 24 72 51 24 73 52 24 74 51 25 75 50 25 76 53 25 77 54 26 78 55 26 79 56 26 80 55 27 81 54 27 82 57 27 83 58 28 84 59 28 85 60 28 86 59 29 87 58 29 88 61 29 89 62 30 90 63 30 91 64 30 92 63 31 93 62 31 94 65 31 95 66 32 96 67 32 97 68 32 98 67 33 99 66 33 100 69 33 101 70 34 102 71 34 103 72 34 104 73 35 105 74 35 106 75 35 107 76 36 108 77 36 109 78 36 110 77 37 111 76 37 112 79 37 113 80 38 114 81 38 115 82 38 116 81 39 117 80 39 118 83 39 119 84 40 120 85 40 121 86 40 122 87 41 123 88 41 124 89 41 125 90 42 126 91 42 127 92 42 128 91 43 129 90 43 130 93 43 131 94 44 132 95 44 133 96 44 134 95 45 135 94 45 136 97 45 137 98 46 138 99 46 139 100 46 140 99 47 141 98 47 142 101 47 143 102 48 144 103 48 145 104 48 146 103 49 147 102 49 148 105 49 149 106 50 150 107 50 151 108 50 152 107 51 153 106 51 154 109 51 155 110 52 156 111 52 157 112 52 158 111 53 159 110 53 160 113 53 161 114 54 162 115 54 163 116 54 164 115 55 165 114 55 166 117 55 167 118 56 168 119 56 169 120 56 170 119 57 171 118 57 172 121 57 173 122 58 174 123 58 175 124 58 176 123 59 177 122 59 178 125 59 179 126 60 180 127 60 181 128 60 182 127 61 183 126 61 184 129 61 185 130 62 186 131 62 187 132 62 188 133 63 189 134 63 190 135 63 191 136 64 192 137 64 193 138 64 194 137 65 195 136 65 196 139 65 197 140 66 198 141 66 199 142 66 200 141 67 201 140 67 202 143 67 203 144 68 204 145 68 205 146 68 206 145 69 207 144 69 208 147 69 209 148 70 210 149 70 211 150 70 212 149 71 213 148 71 214 151 71 215 152 72 216 153 72 217 154 72 218 153 73 219 152 73 220 155 73 221 156 74 222 157 74 223 158 74 224 157 75 225 156 75 226 159 75 227</p>
        </triangles>
      </mesh>
    </geometry>
  </library_geometries>
  <library_visual_scenes>
    <visual_scene id="Scene" name="Scene">
      <node id="BoxB" name="BoxB" type="NODE">
        <matrix sid="transform">0.0254 0 0 0 0 0.0254 0 0 0 0 0.0254 0 0 0 0 1</matrix>
        <node id="group_4" name="group_4" type="NODE">
          <matrix sid="transform">0.18183 0 0 0 0 0.18183 0 0 0 0 0.18183 0 0 0 0 1</matrix>
          <node id="group_7" name="group_7" type="NODE">
            <matrix sid="transform">0.6934755 0 0 82.96748 0 0.5588514 0 109.8895 0 0 0.9999999 58.03338 0 0 0 0.9999999</matrix>
            <instance_geometry url="#ID61_008-mesh" name="group_7">
              <bind_material>
                <technique_common>
                  <instance_material symbol="BOX_STUFF16_008-material" target="#BOX_STUFF16_008-material">
                    <bind_vertex_input semantic="ID61_008-mesh-map-0" input_semantic="TEXCOORD" input_set="0"/>
                    <bind_vertex_input semantic="ID61_008-mesh-map-1" input_semantic="TEXCOORD" input_set="1"/>
                    <bind_vertex_input semantic="ID61_008-mesh-map-2" input_semantic="TEXCOORD" input_set="2"/>
                  </instance_material>
                </technique_common>
              </bind_material>
            </instance_geometry>
          </node>
        </node>
      </node>
    </visual_scene>
  </library_visual_scenes>
  <scene>
    <instance_visual_scene url="#Scene"/>
  </scene>
</COLLADA>